NYC Rat Sightings - 2 Data
…
# Total number of rows in the dataset
total_rows <- nrow(data)

# Calculate missing values count and percentage for each column
missing_values <- data |> 
  summarise(across(everything(), ~sum(is.na(.)))) |>
  pivot_longer(cols = everything(), names_to = "Feature", values_to = "count_missing") |>
  mutate(percentage_missing = round((count_missing / total_rows) * 100, 2)) |>
  filter(count_missing > 0) |> # Filter out columns with no missing values
  arrange(desc(percentage_missing)) # Arrange in descending order of missing percentage
# Print the result
print(missing_values)

# A tibble: 23 × 3
   Feature               count_missing percentage_missing
   <chr>                         <int>              <dbl>
 1 Landmark                     138744              59.7 
 2 Intersection.Street.1        118273              50.9 
 3 Intersection.Street.2        118233              50.8 
 4 Facility.Type                107309              46.2 
 5 due                          100304              43.1 
 6 Cross.Street.1                26376              11.3 
 7 Cross.Street.2                26365              11.3 
 8 Closed.Date                   17364               7.47
 9 add                           10942               4.71
10 Street.Name                   10943               4.71
# ℹ 13 more rows
…
